event: message
data: {"jsonrpc":"2.0","id":1,"result":{"content":[{"type":"text","text":"{\"data\":[{\"base_year\":\"2011-12\",\"series\":\"Current\",\"year\":\"2025-26\",\"indicator\":\"Gross Domestic Product\",\"frequency\":\"Quarterly\",\"revision\":null,\"quarter\":\"Q1\",\"current_price\":\"8605364.534\",\"constant_price\":\"4788623.361\",\"unit\":\"₹ Crore\"},{\"base_year\":\"2011-12\",\"series\":\"Current\",\"year\":\"2025-26\",\"indicator\":\"Gross Domestic Product\",\"frequency\":\"Quarterly\",\"revision\":null,\"quarter\":\"Q2\",\"current_price\":\"8525069.516\",\"constant_price\":\"4863340.166\",\"unit\":\"₹ Crore\"},{\"base_year\":\"2011-12\",\"series\":\"Current\",\"year\":\"2024-25\",\"indicator\":\"Gross Domestic Product\",\"frequency\":\"Quarterly\",\"revision\":null,\"quarter\":\"Q1\",\"current_price\":\"7907894.211498685\",\"constant_price\":\"4441663.946155024\",\"unit\":\"₹ Crore\"},{\"base_year\":\"2011-12\",\"series\":\"Current\",\"year\":\"2024-25\",\"indicator\":\"Gross Domestic Product\",\"frequency\":\"Quarterly\",\"revision\":null,\"quarter\":\"Q2\",\"current_price\":\"7840345.0766465785\",\"constant_price\":\"4493586.559883779\",\"unit\":\"₹ Crore\"},{\"base_year\":\"2011-12\",\"series\":\"Current\",\"year\":\"2024-25\",\"indicator\":\"Gross Domestic Product\",\"frequency\":\"Quarterly\",\"revision\":null,\"quarter\":\"Q3\",\"current_price\":\"8502371.933570046\",\"constant_price\":\"4726541.829827959\",\"unit\":\"₹ Crore\"},{\"base_year\":\"2011-12\",\"series\":\"Current\",\"year\":\"2024-25\",\"indicator\":\"Gross Domestic Product\",\"frequency\":\"Quarterly\",\"revision\":null,\"quarter\":\"Q4\",\"current_price\":\"8817534.147293523\",\"constant_price\":\"5135163.108031793\",\"unit\":\"₹ Crore\"},{\"base_year\":\"2011-12\",\"series\":\"Current\",\"year\":\"2023-24\",\"indicator\":\"Gross Domestic Product\",\"frequency\":\"Quarterly\",\"revision\":null,\"quarter\":\"Q1\",\"current_price\":\"7211627.7407951895\",\"constant_price\":\"4170114.443535164\",\"unit\":\"₹ Crore\"},{\"base_year\":\"2011-12\",\"series\":\"Current\",\"year\":\"2023-24\",\"indicator\":\"Gross Domestic Product\",\"frequency\":\"Quarterly\",\"revision\":null,\"quarter\":\"Q2\",\"current_price\":\"7240697.118385134\",\"constant_price\":\"4254805.793562238\",\"unit\":\"₹ Crore\"},{\"base_year\":\"2011-12\",\"series\":\"Current\",\"year\":\"2023-24\",\"indicator\":\"Gross Domestic Product\",\"frequency\":\"Quarterly\",\"revision\":null,\"quarter\":\"Q3\",\"current_price\":\"7709665.373284863\",\"constant_price\":\"4443638.242661299\",\"unit\":\"₹ Crore\"},{\"base_year\":\"2011-12\",\"series\":\"Current\",\"year\":\"2023-24\",\"indicator\":\"Gross Domestic Product\",\"frequency\":\"Quarterly\",\"revision\":null,\"quarter\":\"Q4\",\"current_price\":\"7960965.6950431755\",\"constant_price\":\"4782032.468479682\",\"unit\":\"₹ Crore\"},{\"base_year\":\"2011-12\",\"series\":\"Current\",\"year\":\"2022-23\",\"indicator\":\"Gross Domestic Product\",\"frequency\":\"Quarterly\",\"revision\":null,\"quarter\":\"Q1\",\"current_price\":\"6499862.585397522\",\"constant_price\":\"3802769.071241618\",\"unit\":\"₹ Crore\"},{\"base_year\":\"2011-12\",\"series\":\"Current\",\"year\":\"2022-23\",\"indicator\":\"Gross Domestic Product\",\"frequency\":\"Quarterly\",\"revision\":null,\"quarter\":\"Q2\",\"current_price\":\"6458024.656568376\",\"constant_price\":\"3891250.725085199\",\"unit\":\"₹ Crore\"},{\"base_year\":\"2011-12\",\"series\":\"Current\",\"year\":\"2022-23\",\"indicator\":\"Gross Domestic Product\",\"frequency\":\"Quarterly\",\"revision\":null,\"quarter\":\"Q3\",\"current_price\":\"6827505.431539382\",\"constant_price\":\"4057577.7831861232\",\"unit\":\"₹ Crore\"},{\"base_year\":\"2011-12\",\"series\":\"Current\",\"year\":\"2022-23\",\"indicator\":\"Gross Domestic Product\",\"frequency\":\"Quarterly\",\"revision\":null,\"quarter\":\"Q4\",\"current_price\":\"7105079.900766106\",\"constant_price\":\"4413315.796011902\",\"unit\":\"₹ Crore\"},{\"base_year\":\"2011-12\",\"series\":\"Current\",\"year\":\"2021-22\",\"indicator\":\"Gross Domestic Product\",\"frequency\":\"Quarterly\",\"revision\":null,\"quarter\":\"Q1\",\"current_price\":\"5178170.065948587\",\"constant_price\":\"3350730.125792569\",\"unit\":\"₹ Crore\"},{\"base_year\":\"2011-12\",\"series\":\"Current\",\"year\":\"2021-22\",\"indicator\":\"Gross Domestic Product\",\"frequency\":\"Quarterly\",\"revision\":null,\"quarter\":\"Q2\",\"current_price\":\"5627314.52940627\",\"constant_price\":\"3672438.13782882\",\"unit\":\"₹ Crore\"},{\"base_year\":\"2011-12\",\"series\":\"Current\",\"year\":\"2021-22\",\"indicator\":\"Gross Domestic Product\",\"frequency\":\"Quarterly\",\"revision\":null,\"quarter\":\"Q3\",\"current_price\":\"6268323.171400001\",\"constant_price\":\"3870107.780866347\",\"unit\":\"₹ Crore\"},{\"base_year\":\"2011-12\",\"series\":\"Current\",\"year\":\"2021-22\",\"indicator\":\"Gross Domestic Product\",\"frequency\":\"Quarterly\",\"revision\":null,\"quarter\":\"Q4\",\"current_price\":\"6523590.761535522\",\"constant_price\":\"4128570.209068934\",\"unit\":\"₹ Crore\"},{\"base_year\":\"2011-12\",\"series\":\"Current\",\"year\":\"2020-21\",\"indicator\":\"Gross Domestic Product\",\"frequency\":\"Quarterly\",\"revision\":null,\"quarter\":\"Q1\",\"current_price\":\"3893942.583111721\",\"constant_price\":\"2732306.1624803413\",\"unit\":\"₹ Crore\"},{\"base_year\":\"2011-12\",\"series\":\"Current\",\"year\":\"2020-21\",\"indicator\":\"Gross Domestic Product\",\"frequency\":\"Quarterly\",\"revision\":null,\"quarter\":\"Q2\",\"current_price\":\"4728281.280499754\",\"constant_price\":\"3342656.4132056986\",\"unit\":\"₹ Crore\"},{\"base_year\":\"2011-12\",\"series\":\"Current\",\"year\":\"2020-21\",\"indicator\":\"Gross Domestic Product\",\"frequency\":\"Quarterly\",\"revision\":null,\"quarter\":\"Q3\",\"current_price\":\"5474171.368749541\",\"constant_price\":\"3667337.917707657\",\"unit\":\"₹ Crore\"},{\"base_year\":\"2011-12\",\"series\":\"Current\",\"year\":\"2020-21\",\"indicator\":\"Gross Domestic Product\",\"frequency\":\"Quarterly\",\"revision\":null,\"quarter\":\"Q4\",\"current_price\":\"5757700.774135975\",\"constant_price\":\"3952568.4405267606\",\"unit\":\"₹ Crore\"},{\"base_year\":\"2011-12\",\"series\":\"Current\",\"year\":\"2019-20\",\"indicator\":\"Gross Domestic Product\",\"frequency\":\"Quarterly\",\"revision\":null,\"quarter\":\"Q1\",\"current_price\":\"4951378.351529209\",\"constant_price\":\"3554641.509463443\",\"unit\":\"₹ Crore\"},{\"base_year\":\"2011-12\",\"series\":\"Current\",\"year\":\"2019-20\",\"indicator\":\"Gross Domestic Product\",\"frequency\":\"Quarterly\",\"revision\":null,\"quarter\":\"Q2\",\"current_price\":\"4868137.042351909\",\"constant_price\":\"3549945.4536129762\",\"unit\":\"₹ Crore\"},{\"base_year\":\"2011-12\",\"series\":\"Current\",\"year\":\"2019-20\",\"indicator\":\"Gross Domestic Product\",\"frequency\":\"Quarterly\",\"revision\":null,\"quarter\":\"Q3\",\"current_price\":\"5135344.643158515\",\"constant_price\":\"3603375.0476866285\",\"unit\":\"₹ Crore\"},{\"base_year\":\"2011-12\",\"series\":\"Current\",\"year\":\"2019-20\",\"indicator\":\"Gross Domestic Product\",\"frequency\":\"Quarterly\",\"revision\":null,\"quarter\":\"Q4\",\"current_price\":\"5148732.819554979\",\"constant_price\":\"3826678.6421807245\",\"unit\":\"₹ Crore\"},{\"base_year\":\"2011-12\",\"series\":\"Current\",\"year\":\"2018-19\",\"indicator\":\"Gross Domestic Product\",\"frequency\":\"Quarterly\",\"revision\":null,\"quarter\":\"Q1\",\"current_price\":\"4569369.10960454\",\"constant_price\":\"3382300.826252723\",\"unit\":\"₹ Crore\"},{\"base_year\":\"2011-12\",\"series\":\"Current\",\"year\":\"2018-19\",\"indicator\":\"Gross Domestic Product\",\"frequency\":\"Quarterly\",\"revision\":null,\"quarter\":\"Q2\",\"current_price\":\"4656017.01085801\",\"constant_price\":\"3403644.190329838\",\"unit\":\"₹ Crore\"},{\"base_year\":\"2011-12\",\"series\":\"Current\",\"year\":\"2018-19\",\"indicator\":\"Gross Domestic Product\",\"frequency\":\"Quarterly\",\"revision\":null,\"quarter\":\"Q3\",\"current_price\":\"4872998.335604323\",\"constant_price\":\"3489760.8891947092\",\"unit\":\"₹ Crore\"},{\"base_year\":\"2011-12\",\"series\":\"Current\",\"year\":\"2018-19\",\"indicator\":\"Gross Domestic Product\",\"frequency\":\"Quarterly\",\"revision\":null,\"quarter\":\"Q4\",\"current_price\":\"4801283.988518902\",\"constant_price\":\"3717210.038242801\",\"unit\":\"₹ Crore\"},{\"base_year\":\"2011-12\",\"series\":\"Current\",\"year\":\"2017-18\",\"indicator\":\"Gross Domestic Product\",\"frequency\":\"Quarterly\",\"revision\":null,\"quarter\":\"Q1\",\"current_price\":\"4008915.9587263893\",\"constant_price\":\"3146336.282723581\",\"unit\":\"₹ Crore\"},{\"base_year\":\"2011-12\",\"series\":\"Current\",\"year\":\"2017-18\",\"indicator\":\"Gross Domestic Product\",\"frequency\":\"Quarterly\",\"revision\":null,\"quarter\":\"Q2\",\"current_price\":\"4157246.3475744613\",\"constant_price\":\"3197195.485297825\",\"unit\":\"₹ Crore\"},{\"base_year\":\"2011-12\",\"series\":\"Current\",\"year\":\"2017-18\",\"indicator\":\"Gross Domestic Product\",\"frequency\":\"Quarterly\",\"revision\":null,\"quarter\":\"Q3\",\"current_price\":\"4339193.521977622\",\"constant_price\":\"3284991.655580265\",\"unit\":\"₹ Crore\"},{\"base_year\":\"2011-12\",\"series\":\"Current\",\"year\":\"2017-18\",\"indicator\":\"Gross Domestic Product\",\"frequency\":\"Quarterly\",\"revision\":null,\"quarter\":\"Q4\",\"current_price\":\"4584686.003245508\",\"constant_price\":\"3516058.3516894863\",\"unit\":\"₹ Crore\"},{\"base_year\":\"2011-12\",\"series\":\"Current\",\"year\":\"2016-17\",\"indicator\":\"Gross Domestic Product\",\"frequency\":\"Quarterly\",\"revision\":null,\"quarter\":\"Q1\",\"current_price\":\"3639774.6060400945\",\"constant_price\":\"2965087.777365247\",\"unit\":\"₹ Crore\"},{\"base_year\":\"2011-12\",\"series\":\"Current\",\"year\":\"2016-17\",\"indicator\":\"Gross Domestic Product\",\"frequency\":\"Quarterly\",\"revision\":null,\"quarter\":\"Q2\",\"current_price\":\"3754117.027647742\",\"constant_price\":\"3035755.825347009\",\"unit\":\"₹ Crore\"},{\"base_year\":\"2011-12\",\"series\":\"Current\",\"year\":\"2016-17\",\"indicator\":\"Gross Domestic Product\",\"frequency\":\"Quarterly\",\"revision\":null,\"quarter\":\"Q3\",\"current_price\":\"3875006.7021133816\",\"constant_price\":\"3079621.613129943\",\"unit\":\"₹ Crore\"},{\"base_year\":\"2011-12\",\"series\":\"Current\",\"year\":\"2016-17\",\"indicator\":\"Gross Domestic Product\",\"frequency\":\"Quarterly\",\"revision\":null,\"quarter\":\"Q4\",\"current_price\":\"4122770.6790721538\",\"constant_price\":\"3227728.311887769\",\"unit\":\"₹ Crore\"},{\"base_year\":\"2011-12\",\"series\":\"Current\",\"year\":\"2015-16\",\"indicator\":\"Gross Domestic Product\",\"frequency\":\"Quarterly\",\"revision\":null,\"quarter\":\"Q1\",\"current_price\":\"3243543.361312905\",\"constant_price\":\"2728278.584346896\",\"unit\":\"₹ Crore\"},{\"base_year\":\"2011-12\",\"series\":\"Current\",\"year\":\"2015-16\",\"indicator\":\"Gross Domestic Product\",\"frequency\":\"Quarterly\",\"revision\":null,\"quarter\":\"Q2\",\"current_price\":\"3355884.42395621\",\"constant_price\":\"2768087.099670945\",\"unit\":\"₹ Crore\"}],\"meta_data\":{\"page\":1,\"totalRecords\":58,\"totalPages\":2,\"recordPerPage\":40},\"msg\":\"Data fetched successfully\",\"statusCode\":true}"}],"structuredContent":{"data":[{"base_year":"2011-12","series":"Current","year":"2025-26","indicator":"Gross Domestic Product","frequency":"Quarterly","revision":null,"quarter":"Q1","current_price":"8605364.534","constant_price":"4788623.361","unit":"₹ Crore"},{"base_year":"2011-12","series":"Current","year":"2025-26","indicator":"Gross Domestic Product","frequency":"Quarterly","revision":null,"quarter":"Q2","current_price":"8525069.516","constant_price":"4863340.166","unit":"₹ Crore"},{"base_year":"2011-12","series":"Current","year":"2024-25","indicator":"Gross Domestic Product","frequency":"Quarterly","revision":null,"quarter":"Q1","current_price":"7907894.211498685","constant_price":"4441663.946155024","unit":"₹ Crore"},{"base_year":"2011-12","series":"Current","year":"2024-25","indicator":"Gross Domestic Product","frequency":"Quarterly","revision":null,"quarter":"Q2","current_price":"7840345.0766465785","constant_price":"4493586.559883779","unit":"₹ Crore"},{"base_year":"2011-12","series":"Current","year":"2024-25","indicator":"Gross Domestic Product","frequency":"Quarterly","revision":null,"quarter":"Q3","current_price":"8502371.933570046","constant_price":"4726541.829827959","unit":"₹ Crore"},{"base_year":"2011-12","series":"Current","year":"2024-25","indicator":"Gross Domestic Product","frequency":"Quarterly","revision":null,"quarter":"Q4","current_price":"8817534.147293523","constant_price":"5135163.108031793","unit":"₹ Crore"},{"base_year":"2011-12","series":"Current","year":"2023-24","indicator":"Gross Domestic Product","frequency":"Quarterly","revision":null,"quarter":"Q1","current_price":"7211627.7407951895","constant_price":"4170114.443535164","unit":"₹ Crore"},{"base_year":"2011-12","series":"Current","year":"2023-24","indicator":"Gross Domestic Product","frequency":"Quarterly","revision":null,"quarter":"Q2","current_price":"7240697.118385134","constant_price":"4254805.793562238","unit":"₹ Crore"},{"base_year":"2011-12","series":"Current","year":"2023-24","indicator":"Gross Domestic Product","frequency":"Quarterly","revision":null,"quarter":"Q3","current_price":"7709665.373284863","constant_price":"4443638.242661299","unit":"₹ Crore"},{"base_year":"2011-12","series":"Current","year":"2023-24","indicator":"Gross Domestic Product","frequency":"Quarterly","revision":null,"quarter":"Q4","current_price":"7960965.6950431755","constant_price":"4782032.468479682","unit":"₹ Crore"},{"base_year":"2011-12","series":"Current","year":"2022-23","indicator":"Gross Domestic Product","frequency":"Quarterly","revision":null,"quarter":"Q1","current_price":"6499862.585397522","constant_price":"3802769.071241618","unit":"₹ Crore"},{"base_year":"2011-12","series":"Current","year":"2022-23","indicator":"Gross Domestic Product","frequency":"Quarterly","revision":null,"quarter":"Q2","current_price":"6458024.656568376","constant_price":"3891250.725085199","unit":"₹ Crore"},{"base_year":"2011-12","series":"Current","year":"2022-23","indicator":"Gross Domestic Product","frequency":"Quarterly","revision":null,"quarter":"Q3","current_price":"6827505.431539382","constant_price":"4057577.7831861232","unit":"₹ Crore"},{"base_year":"2011-12","series":"Current","year":"2022-23","indicator":"Gross Domestic Product","frequency":"Quarterly","revision":null,"quarter":"Q4","current_price":"7105079.900766106","constant_price":"4413315.796011902","unit":"₹ Crore"},{"base_year":"2011-12","series":"Current","year":"2021-22","indicator":"Gross Domestic Product","frequency":"Quarterly","revision":null,"quarter":"Q1","current_price":"5178170.065948587","constant_price":"3350730.125792569","unit":"₹ Crore"},{"base_year":"2011-12","series":"Current","year":"2021-22","indicator":"Gross Domestic Product","frequency":"Quarterly","revision":null,"quarter":"Q2","current_price":"5627314.52940627","constant_price":"3672438.13782882","unit":"₹ Crore"},{"base_year":"2011-12","series":"Current","year":"2021-22","indicator":"Gross Domestic Product","frequency":"Quarterly","revision":null,"quarter":"Q3","current_price":"6268323.171400001","constant_price":"3870107.780866347","unit":"₹ Crore"},{"base_year":"2011-12","series":"Current","year":"2021-22","indicator":"Gross Domestic Product","frequency":"Quarterly","revision":null,"quarter":"Q4","current_price":"6523590.761535522","constant_price":"4128570.209068934","unit":"₹ Crore"},{"base_year":"2011-12","series":"Current","year":"2020-21","indicator":"Gross Domestic Product","frequency":"Quarterly","revision":null,"quarter":"Q1","current_price":"3893942.583111721","constant_price":"2732306.1624803413","unit":"₹ Crore"},{"base_year":"2011-12","series":"Current","year":"2020-21","indicator":"Gross Domestic Product","frequency":"Quarterly","revision":null,"quarter":"Q2","current_price":"4728281.280499754","constant_price":"3342656.4132056986","unit":"₹ Crore"},{"base_year":"2011-12","series":"Current","year":"2020-21","indicator":"Gross Domestic Product","frequency":"Quarterly","revision":null,"quarter":"Q3","current_price":"5474171.368749541","constant_price":"3667337.917707657","unit":"₹ Crore"},{"base_year":"2011-12","series":"Current","year":"2020-21","indicator":"Gross Domestic Product","frequency":"Quarterly","revision":null,"quarter":"Q4","current_price":"5757700.774135975","constant_price":"3952568.4405267606","unit":"₹ Crore"},{"base_year":"2011-12","series":"Current","year":"2019-20","indicator":"Gross Domestic Product","frequency":"Quarterly","revision":null,"quarter":"Q1","current_price":"4951378.351529209","constant_price":"3554641.509463443","unit":"₹ Crore"},{"base_year":"2011-12","series":"Current","year":"2019-20","indicator":"Gross Domestic Product","frequency":"Quarterly","revision":null,"quarter":"Q2","current_price":"4868137.042351909","constant_price":"3549945.4536129762","unit":"₹ Crore"},{"base_year":"2011-12","series":"Current","year":"2019-20","indicator":"Gross Domestic Product","frequency":"Quarterly","revision":null,"quarter":"Q3","current_price":"5135344.643158515","constant_price":"3603375.0476866285","unit":"₹ Crore"},{"base_year":"2011-12","series":"Current","year":"2019-20","indicator":"Gross Domestic Product","frequency":"Quarterly","revision":null,"quarter":"Q4","current_price":"5148732.819554979","constant_price":"3826678.6421807245","unit":"₹ Crore"},{"base_year":"2011-12","series":"Current","year":"2018-19","indicator":"Gross Domestic Product","frequency":"Quarterly","revision":null,"quarter":"Q1","current_price":"4569369.10960454","constant_price":"3382300.826252723","unit":"₹ Crore"},{"base_year":"2011-12","series":"Current","year":"2018-19","indicator":"Gross Domestic Product","frequency":"Quarterly","revision":null,"quarter":"Q2","current_price":"4656017.01085801","constant_price":"3403644.190329838","unit":"₹ Crore"},{"base_year":"2011-12","series":"Current","year":"2018-19","indicator":"Gross Domestic Product","frequency":"Quarterly","revision":null,"quarter":"Q3","current_price":"4872998.335604323","constant_price":"3489760.8891947092","unit":"₹ Crore"},{"base_year":"2011-12","series":"Current","year":"2018-19","indicator":"Gross Domestic Product","frequency":"Quarterly","revision":null,"quarter":"Q4","current_price":"4801283.988518902","constant_price":"3717210.038242801","unit":"₹ Crore"},{"base_year":"2011-12","series":"Current","year":"2017-18","indicator":"Gross Domestic Product","frequency":"Quarterly","revision":null,"quarter":"Q1","current_price":"4008915.9587263893","constant_price":"3146336.282723581","unit":"₹ Crore"},{"base_year":"2011-12","series":"Current","year":"2017-18","indicator":"Gross Domestic Product","frequency":"Quarterly","revision":null,"quarter":"Q2","current_price":"4157246.3475744613","constant_price":"3197195.485297825","unit":"₹ Crore"},{"base_year":"2011-12","series":"Current","year":"2017-18","indicator":"Gross Domestic Product","frequency":"Quarterly","revision":null,"quarter":"Q3","current_price":"4339193.521977622","constant_price":"3284991.655580265","unit":"₹ Crore"},{"base_year":"2011-12","series":"Current","year":"2017-18","indicator":"Gross Domestic Product","frequency":"Quarterly","revision":null,"quarter":"Q4","current_price":"4584686.003245508","constant_price":"3516058.3516894863","unit":"₹ Crore"},{"base_year":"2011-12","series":"Current","year":"2016-17","indicator":"Gross Domestic Product","frequency":"Quarterly","revision":null,"quarter":"Q1","current_price":"3639774.6060400945","constant_price":"2965087.777365247","unit":"₹ Crore"},{"base_year":"2011-12","series":"Current","year":"2016-17","indicator":"Gross Domestic Product","frequency":"Quarterly","revision":null,"quarter":"Q2","current_price":"3754117.027647742","constant_price":"3035755.825347009","unit":"₹ Crore"},{"base_year":"2011-12","series":"Current","year":"2016-17","indicator":"Gross Domestic Product","frequency":"Quarterly","revision":null,"quarter":"Q3","current_price":"3875006.7021133816","constant_price":"3079621.613129943","unit":"₹ Crore"},{"base_year":"2011-12","series":"Current","year":"2016-17","indicator":"Gross Domestic Product","frequency":"Quarterly","revision":null,"quarter":"Q4","current_price":"4122770.6790721538","constant_price":"3227728.311887769","unit":"₹ Crore"},{"base_year":"2011-12","series":"Current","year":"2015-16","indicator":"Gross Domestic Product","frequency":"Quarterly","revision":null,"quarter":"Q1","current_price":"3243543.361312905","constant_price":"2728278.584346896","unit":"₹ Crore"},{"base_year":"2011-12","series":"Current","year":"2015-16","indicator":"Gross Domestic Product","frequency":"Quarterly","revision":null,"quarter":"Q2","current_price":"3355884.42395621","constant_price":"2768087.099670945","unit":"₹ Crore"}],"meta_data":{"page":1,"totalRecords":58,"totalPages":2,"recordPerPage":40},"msg":"Data fetched successfully","statusCode":true},"isError":false}}

