event: message
data: {"jsonrpc":"2.0","id":1,"result":{"content":[{"type":"text","text":"{\"data\":[{\"year\":2024,\"month\":\"December\",\"majorgroup\":\"Wholesale price index\",\"group\":null,\"subgroup\":null,\"sub_subgroup\":null,\"item\":null,\"index_value\":\"155.7\"},{\"year\":2024,\"month\":\"December\",\"majorgroup\":\"Primary articles\",\"group\":\"Food articles\",\"subgroup\":\"Food grains (cereals+pulses)\",\"sub_subgroup\":\"Cereals\",\"item\":\"Paddy\",\"index_value\":\"205.3\"},{\"year\":2024,\"month\":\"December\",\"majorgroup\":\"Primary articles\",\"group\":\"Food articles\",\"subgroup\":\"Food grains (cereals+pulses)\",\"sub_subgroup\":\"Cereals\",\"item\":\"Wheat\",\"index_value\":\"215.5\"},{\"year\":2024,\"month\":\"December\",\"majorgroup\":\"Primary articles\",\"group\":\"Food articles\",\"subgroup\":\"Food grains (cereals+pulses)\",\"sub_subgroup\":\"Cereals\",\"item\":\"Jowar\",\"index_value\":\"201.4\"},{\"year\":2024,\"month\":\"December\",\"majorgroup\":\"Primary articles\",\"group\":\"Food articles\",\"subgroup\":\"Food grains (cereals+pulses)\",\"sub_subgroup\":\"Cereals\",\"item\":\"Bajra\",\"index_value\":\"255.1\"},{\"year\":2024,\"month\":\"December\",\"majorgroup\":\"Primary articles\",\"group\":\"Food articles\",\"subgroup\":\"Food grains (cereals+pulses)\",\"sub_subgroup\":\"Cereals\",\"item\":\"Maize\",\"index_value\":\"212.9\"},{\"year\":2024,\"month\":\"December\",\"majorgroup\":\"Primary articles\",\"group\":\"Food articles\",\"subgroup\":\"Food grains (cereals+pulses)\",\"sub_subgroup\":\"Cereals\",\"item\":\"Barley\",\"index_value\":\"234.9\"},{\"year\":2024,\"month\":\"December\",\"majorgroup\":\"Primary articles\",\"group\":\"Food articles\",\"subgroup\":\"Food grains (cereals+pulses)\",\"sub_subgroup\":\"Cereals\",\"item\":\"Ragi\",\"index_value\":\"316.9\"},{\"year\":2024,\"month\":\"December\",\"majorgroup\":\"Primary articles\",\"group\":\"Food articles\",\"subgroup\":\"Food grains (cereals+pulses)\",\"sub_subgroup\":\"Cereals\",\"item\":null,\"index_value\":\"211.4\"},{\"year\":2024,\"month\":\"December\",\"majorgroup\":\"Primary articles\",\"group\":\"Food articles\",\"subgroup\":\"Food grains (cereals+pulses)\",\"sub_subgroup\":\"Pulses\",\"item\":\"Gram\",\"index_value\":\"221.4\"},{\"year\":2024,\"month\":\"December\",\"majorgroup\":\"Primary articles\",\"group\":\"Food articles\",\"subgroup\":\"Food grains (cereals+pulses)\",\"sub_subgroup\":\"Pulses\",\"item\":\"Arhar\",\"index_value\":\"273.8\"},{\"year\":2024,\"month\":\"December\",\"majorgroup\":\"Primary articles\",\"group\":\"Food articles\",\"subgroup\":\"Food grains (cereals+pulses)\",\"sub_subgroup\":\"Pulses\",\"item\":\"Moong\",\"index_value\":\"186\"},{\"year\":2024,\"month\":\"December\",\"majorgroup\":\"Primary articles\",\"group\":\"Food articles\",\"subgroup\":\"Food grains (cereals+pulses)\",\"sub_subgroup\":\"Pulses\",\"item\":\"Masur\",\"index_value\":\"187.4\"},{\"year\":2024,\"month\":\"December\",\"majorgroup\":\"Primary articles\",\"group\":\"Food articles\",\"subgroup\":\"Food grains (cereals+pulses)\",\"sub_subgroup\":\"Pulses\",\"item\":\"Urad\",\"index_value\":\"212.9\"},{\"year\":2024,\"month\":\"December\",\"majorgroup\":\"Primary articles\",\"group\":\"Food articles\",\"subgroup\":\"Food grains (cereals+pulses)\",\"sub_subgroup\":\"Pulses\",\"item\":\"Peas/chawali\",\"index_value\":\"218.4\"},{\"year\":2024,\"month\":\"December\",\"majorgroup\":\"Primary articles\",\"group\":\"Food articles\",\"subgroup\":\"Food grains (cereals+pulses)\",\"sub_subgroup\":\"Pulses\",\"item\":\"Rajma\",\"index_value\":\"229.5\"},{\"year\":2024,\"month\":\"December\",\"majorgroup\":\"Primary articles\",\"group\":\"Food articles\",\"subgroup\":\"Food grains (cereals+pulses)\",\"sub_subgroup\":\"Pulses\",\"item\":null,\"index_value\":\"224\"},{\"year\":2024,\"month\":\"December\",\"majorgroup\":\"Primary articles\",\"group\":\"Food articles\",\"subgroup\":\"Food grains (cereals+pulses)\",\"sub_subgroup\":null,\"item\":null,\"index_value\":\"213.7\"},{\"year\":2024,\"month\":\"December\",\"majorgroup\":\"Primary articles\",\"group\":\"Food articles\",\"subgroup\":\"Fruits & vegetables\",\"sub_subgroup\":\"Vegetables\",\"item\":\"Potato\",\"index_value\":\"365.1\"},{\"year\":2024,\"month\":\"December\",\"majorgroup\":\"Primary articles\",\"group\":\"Food articles\",\"subgroup\":\"Fruits & vegetables\",\"sub_subgroup\":\"Vegetables\",\"item\":\"Sweet potato\",\"index_value\":\"99.6\"},{\"year\":2024,\"month\":\"December\",\"majorgroup\":\"Primary articles\",\"group\":\"Food articles\",\"subgroup\":\"Fruits & vegetables\",\"sub_subgroup\":\"Vegetables\",\"item\":\"Onion\",\"index_value\":\"414.7\"},{\"year\":2024,\"month\":\"December\",\"majorgroup\":\"Primary articles\",\"group\":\"Food articles\",\"subgroup\":\"Fruits & vegetables\",\"sub_subgroup\":\"Vegetables\",\"item\":\"Tapioca\",\"index_value\":\"245.2\"},{\"year\":2024,\"month\":\"December\",\"majorgroup\":\"Primary articles\",\"group\":\"Food articles\",\"subgroup\":\"Fruits & vegetables\",\"sub_subgroup\":\"Vegetables\",\"item\":\"Ginger (fresh)\",\"index_value\":\"228.7\"},{\"year\":2024,\"month\":\"December\",\"majorgroup\":\"Primary articles\",\"group\":\"Food articles\",\"subgroup\":\"Fruits & vegetables\",\"sub_subgroup\":\"Vegetables\",\"item\":\"Peas (green)\",\"index_value\":\"349.2\"},{\"year\":2024,\"month\":\"December\",\"majorgroup\":\"Primary articles\",\"group\":\"Food articles\",\"subgroup\":\"Fruits & vegetables\",\"sub_subgroup\":\"Vegetables\",\"item\":\"Tomato\",\"index_value\":\"346.4\"},{\"year\":2024,\"month\":\"December\",\"majorgroup\":\"Primary articles\",\"group\":\"Food articles\",\"subgroup\":\"Fruits & vegetables\",\"sub_subgroup\":\"Vegetables\",\"item\":\"Cauliflower\",\"index_value\":\"209.1\"},{\"year\":2024,\"month\":\"December\",\"majorgroup\":\"Primary articles\",\"group\":\"Food articles\",\"subgroup\":\"Fruits & vegetables\",\"sub_subgroup\":\"Vegetables\",\"item\":\"Brinjal\",\"index_value\":\"222.2\"},{\"year\":2024,\"month\":\"December\",\"majorgroup\":\"Primary articles\",\"group\":\"Food articles\",\"subgroup\":\"Fruits & vegetables\",\"sub_subgroup\":\"Vegetables\",\"item\":\"Okra (lady finger)\",\"index_value\":\"220.2\"},{\"year\":2024,\"month\":\"December\",\"majorgroup\":\"Primary articles\",\"group\":\"Food articles\",\"subgroup\":\"Fruits & vegetables\",\"sub_subgroup\":\"Vegetables\",\"item\":\"Cabbage\",\"index_value\":\"214.4\"},{\"year\":2024,\"month\":\"December\",\"majorgroup\":\"Primary articles\",\"group\":\"Food articles\",\"subgroup\":\"Fruits & vegetables\",\"sub_subgroup\":\"Vegetables\",\"item\":\"Carrot\",\"index_value\":\"259.3\"},{\"year\":2024,\"month\":\"December\",\"majorgroup\":\"Primary articles\",\"group\":\"Food articles\",\"subgroup\":\"Fruits & vegetables\",\"sub_subgroup\":\"Vegetables\",\"item\":\"Radish\",\"index_value\":\"189.2\"},{\"year\":2024,\"month\":\"December\",\"majorgroup\":\"Primary articles\",\"group\":\"Food articles\",\"subgroup\":\"Fruits & vegetables\",\"sub_subgroup\":\"Vegetables\",\"item\":\"Cucumber\",\"index_value\":\"193.4\"},{\"year\":2024,\"month\":\"December\",\"majorgroup\":\"Primary articles\",\"group\":\"Food articles\",\"subgroup\":\"Fruits & vegetables\",\"sub_subgroup\":\"Vegetables\",\"item\":\"Pointed gourd\",\"index_value\":\"164.6\"},{\"year\":2024,\"month\":\"December\",\"majorgroup\":\"Primary articles\",\"group\":\"Food articles\",\"subgroup\":\"Fruits & vegetables\",\"sub_subgroup\":\"Vegetables\",\"item\":\"Bitter gourd\",\"index_value\":\"249.8\"},{\"year\":2024,\"month\":\"December\",\"majorgroup\":\"Primary articles\",\"group\":\"Food articles\",\"subgroup\":\"Fruits & vegetables\",\"sub_subgroup\":\"Vegetables\",\"item\":\"Bottle gourd\",\"index_value\":\"206.7\"},{\"year\":2024,\"month\":\"December\",\"majorgroup\":\"Primary articles\",\"group\":\"Food articles\",\"subgroup\":\"Fruits & vegetables\",\"sub_subgroup\":\"Vegetables\",\"item\":\"Beans\",\"index_value\":\"184.4\"},{\"year\":2024,\"month\":\"December\",\"majorgroup\":\"Primary articles\",\"group\":\"Food articles\",\"subgroup\":\"Fruits & vegetables\",\"sub_subgroup\":\"Vegetables\",\"item\":\"Pumpkin\",\"index_value\":\"220.8\"},{\"year\":2024,\"month\":\"December\",\"majorgroup\":\"Primary articles\",\"group\":\"Food articles\",\"subgroup\":\"Fruits & vegetables\",\"sub_subgroup\":\"Vegetables\",\"item\":\"Drumstick\",\"index_value\":\"676.6\"},{\"year\":2024,\"month\":\"December\",\"majorgroup\":\"Primary articles\",\"group\":\"Food articles\",\"subgroup\":\"Fruits & vegetables\",\"sub_subgroup\":\"Vegetables\",\"item\":null,\"index_value\":\"288.5\"},{\"year\":2024,\"month\":\"December\",\"majorgroup\":\"Primary articles\",\"group\":\"Food articles\",\"subgroup\":\"Fruits & vegetables\",\"sub_subgroup\":\"Fruits\",\"item\":\"Banana\",\"index_value\":\"172.2\"}],\"meta_data\":{\"page\":1,\"totalRecords\":869,\"totalPages\":22,\"recordPerPage\":40},\"msg\":\"Data fetched successfully\",\"statusCode\":true}"}],"structuredContent":{"data":[{"year":2024,"month":"December","majorgroup":"Wholesale price index","group":null,"subgroup":null,"sub_subgroup":null,"item":null,"index_value":"155.7"},{"year":2024,"month":"December","majorgroup":"Primary articles","group":"Food articles","subgroup":"Food grains (cereals+pulses)","sub_subgroup":"Cereals","item":"Paddy","index_value":"205.3"},{"year":2024,"month":"December","majorgroup":"Primary articles","group":"Food articles","subgroup":"Food grains (cereals+pulses)","sub_subgroup":"Cereals","item":"Wheat","index_value":"215.5"},{"year":2024,"month":"December","majorgroup":"Primary articles","group":"Food articles","subgroup":"Food grains (cereals+pulses)","sub_subgroup":"Cereals","item":"Jowar","index_value":"201.4"},{"year":2024,"month":"December","majorgroup":"Primary articles","group":"Food articles","subgroup":"Food grains (cereals+pulses)","sub_subgroup":"Cereals","item":"Bajra","index_value":"255.1"},{"year":2024,"month":"December","majorgroup":"Primary articles","group":"Food articles","subgroup":"Food grains (cereals+pulses)","sub_subgroup":"Cereals","item":"Maize","index_value":"212.9"},{"year":2024,"month":"December","majorgroup":"Primary articles","group":"Food articles","subgroup":"Food grains (cereals+pulses)","sub_subgroup":"Cereals","item":"Barley","index_value":"234.9"},{"year":2024,"month":"December","majorgroup":"Primary articles","group":"Food articles","subgroup":"Food grains (cereals+pulses)","sub_subgroup":"Cereals","item":"Ragi","index_value":"316.9"},{"year":2024,"month":"December","majorgroup":"Primary articles","group":"Food articles","subgroup":"Food grains (cereals+pulses)","sub_subgroup":"Cereals","item":null,"index_value":"211.4"},{"year":2024,"month":"December","majorgroup":"Primary articles","group":"Food articles","subgroup":"Food grains (cereals+pulses)","sub_subgroup":"Pulses","item":"Gram","index_value":"221.4"},{"year":2024,"month":"December","majorgroup":"Primary articles","group":"Food articles","subgroup":"Food grains (cereals+pulses)","sub_subgroup":"Pulses","item":"Arhar","index_value":"273.8"},{"year":2024,"month":"December","majorgroup":"Primary articles","group":"Food articles","subgroup":"Food grains (cereals+pulses)","sub_subgroup":"Pulses","item":"Moong","index_value":"186"},{"year":2024,"month":"December","majorgroup":"Primary articles","group":"Food articles","subgroup":"Food grains (cereals+pulses)","sub_subgroup":"Pulses","item":"Masur","index_value":"187.4"},{"year":2024,"month":"December","majorgroup":"Primary articles","group":"Food articles","subgroup":"Food grains (cereals+pulses)","sub_subgroup":"Pulses","item":"Urad","index_value":"212.9"},{"year":2024,"month":"December","majorgroup":"Primary articles","group":"Food articles","subgroup":"Food grains (cereals+pulses)","sub_subgroup":"Pulses","item":"Peas/chawali","index_value":"218.4"},{"year":2024,"month":"December","majorgroup":"Primary articles","group":"Food articles","subgroup":"Food grains (cereals+pulses)","sub_subgroup":"Pulses","item":"Rajma","index_value":"229.5"},{"year":2024,"month":"December","majorgroup":"Primary articles","group":"Food articles","subgroup":"Food grains (cereals+pulses)","sub_subgroup":"Pulses","item":null,"index_value":"224"},{"year":2024,"month":"December","majorgroup":"Primary articles","group":"Food articles","subgroup":"Food grains (cereals+pulses)","sub_subgroup":null,"item":null,"index_value":"213.7"},{"year":2024,"month":"December","majorgroup":"Primary articles","group":"Food articles","subgroup":"Fruits & vegetables","sub_subgroup":"Vegetables","item":"Potato","index_value":"365.1"},{"year":2024,"month":"December","majorgroup":"Primary articles","group":"Food articles","subgroup":"Fruits & vegetables","sub_subgroup":"Vegetables","item":"Sweet potato","index_value":"99.6"},{"year":2024,"month":"December","majorgroup":"Primary articles","group":"Food articles","subgroup":"Fruits & vegetables","sub_subgroup":"Vegetables","item":"Onion","index_value":"414.7"},{"year":2024,"month":"December","majorgroup":"Primary articles","group":"Food articles","subgroup":"Fruits & vegetables","sub_subgroup":"Vegetables","item":"Tapioca","index_value":"245.2"},{"year":2024,"month":"December","majorgroup":"Primary articles","group":"Food articles","subgroup":"Fruits & vegetables","sub_subgroup":"Vegetables","item":"Ginger (fresh)","index_value":"228.7"},{"year":2024,"month":"December","majorgroup":"Primary articles","group":"Food articles","subgroup":"Fruits & vegetables","sub_subgroup":"Vegetables","item":"Peas (green)","index_value":"349.2"},{"year":2024,"month":"December","majorgroup":"Primary articles","group":"Food articles","subgroup":"Fruits & vegetables","sub_subgroup":"Vegetables","item":"Tomato","index_value":"346.4"},{"year":2024,"month":"December","majorgroup":"Primary articles","group":"Food articles","subgroup":"Fruits & vegetables","sub_subgroup":"Vegetables","item":"Cauliflower","index_value":"209.1"},{"year":2024,"month":"December","majorgroup":"Primary articles","group":"Food articles","subgroup":"Fruits & vegetables","sub_subgroup":"Vegetables","item":"Brinjal","index_value":"222.2"},{"year":2024,"month":"December","majorgroup":"Primary articles","group":"Food articles","subgroup":"Fruits & vegetables","sub_subgroup":"Vegetables","item":"Okra (lady finger)","index_value":"220.2"},{"year":2024,"month":"December","majorgroup":"Primary articles","group":"Food articles","subgroup":"Fruits & vegetables","sub_subgroup":"Vegetables","item":"Cabbage","index_value":"214.4"},{"year":2024,"month":"December","majorgroup":"Primary articles","group":"Food articles","subgroup":"Fruits & vegetables","sub_subgroup":"Vegetables","item":"Carrot","index_value":"259.3"},{"year":2024,"month":"December","majorgroup":"Primary articles","group":"Food articles","subgroup":"Fruits & vegetables","sub_subgroup":"Vegetables","item":"Radish","index_value":"189.2"},{"year":2024,"month":"December","majorgroup":"Primary articles","group":"Food articles","subgroup":"Fruits & vegetables","sub_subgroup":"Vegetables","item":"Cucumber","index_value":"193.4"},{"year":2024,"month":"December","majorgroup":"Primary articles","group":"Food articles","subgroup":"Fruits & vegetables","sub_subgroup":"Vegetables","item":"Pointed gourd","index_value":"164.6"},{"year":2024,"month":"December","majorgroup":"Primary articles","group":"Food articles","subgroup":"Fruits & vegetables","sub_subgroup":"Vegetables","item":"Bitter gourd","index_value":"249.8"},{"year":2024,"month":"December","majorgroup":"Primary articles","group":"Food articles","subgroup":"Fruits & vegetables","sub_subgroup":"Vegetables","item":"Bottle gourd","index_value":"206.7"},{"year":2024,"month":"December","majorgroup":"Primary articles","group":"Food articles","subgroup":"Fruits & vegetables","sub_subgroup":"Vegetables","item":"Beans","index_value":"184.4"},{"year":2024,"month":"December","majorgroup":"Primary articles","group":"Food articles","subgroup":"Fruits & vegetables","sub_subgroup":"Vegetables","item":"Pumpkin","index_value":"220.8"},{"year":2024,"month":"December","majorgroup":"Primary articles","group":"Food articles","subgroup":"Fruits & vegetables","sub_subgroup":"Vegetables","item":"Drumstick","index_value":"676.6"},{"year":2024,"month":"December","majorgroup":"Primary articles","group":"Food articles","subgroup":"Fruits & vegetables","sub_subgroup":"Vegetables","item":null,"index_value":"288.5"},{"year":2024,"month":"December","majorgroup":"Primary articles","group":"Food articles","subgroup":"Fruits & vegetables","sub_subgroup":"Fruits","item":"Banana","index_value":"172.2"}],"meta_data":{"page":1,"totalRecords":869,"totalPages":22,"recordPerPage":40},"msg":"Data fetched successfully","statusCode":true},"isError":false}}

