event: message
data: {"jsonrpc":"2.0","id":1,"result":{"content":[{"type":"text","text":"{\"data\":[{\"base_year\":\"2011-12\",\"series\":\"Current\",\"year\":\"2025-26\",\"indicator\":\"GDP Growth Rate\",\"frequency\":\"Quarterly\",\"revision\":null,\"quarter\":\"Q1\",\"current_price\":\"8.819924796\",\"constant_price\":\"7.811473796\",\"unit\":\"%\"},{\"base_year\":\"2011-12\",\"series\":\"Current\",\"year\":\"2025-26\",\"indicator\":\"GDP Growth Rate\",\"frequency\":\"Quarterly\",\"revision\":null,\"quarter\":\"Q2\",\"current_price\":\"8.733345698\",\"constant_price\":\"8.22847410397631\",\"unit\":\"%\"},{\"base_year\":\"2011-12\",\"series\":\"Current\",\"year\":\"2024-25\",\"indicator\":\"GDP Growth Rate\",\"frequency\":\"Quarterly\",\"revision\":null,\"quarter\":\"Q1\",\"current_price\":\"9.654775533751021\",\"constant_price\":\"6.511799767050448\",\"unit\":\"%\"},{\"base_year\":\"2011-12\",\"series\":\"Current\",\"year\":\"2024-25\",\"indicator\":\"GDP Growth Rate\",\"frequency\":\"Quarterly\",\"revision\":null,\"quarter\":\"Q2\",\"current_price\":\"8.281632948557586\",\"constant_price\":\"5.61202503491063\",\"unit\":\"%\"},{\"base_year\":\"2011-12\",\"series\":\"Current\",\"year\":\"2024-25\",\"indicator\":\"GDP Growth Rate\",\"frequency\":\"Quarterly\",\"revision\":null,\"quarter\":\"Q3\",\"current_price\":\"10.281984001951997\",\"constant_price\":\"6.3664855624527235\",\"unit\":\"%\"},{\"base_year\":\"2011-12\",\"series\":\"Current\",\"year\":\"2024-25\",\"indicator\":\"GDP Growth Rate\",\"frequency\":\"Quarterly\",\"revision\":null,\"quarter\":\"Q4\",\"current_price\":\"10.759604865320327\",\"constant_price\":\"7.38453036192746\",\"unit\":\"%\"},{\"base_year\":\"2011-12\",\"series\":\"Current\",\"year\":\"2023-24\",\"indicator\":\"GDP Growth Rate\",\"frequency\":\"Quarterly\",\"revision\":null,\"quarter\":\"Q1\",\"current_price\":\"10.950464660540774\",\"constant_price\":\"9.65994425145584\",\"unit\":\"%\"},{\"base_year\":\"2011-12\",\"series\":\"Current\",\"year\":\"2023-24\",\"indicator\":\"GDP Growth Rate\",\"frequency\":\"Quarterly\",\"revision\":null,\"quarter\":\"Q2\",\"current_price\":\"12.119378655835746\",\"constant_price\":\"9.342884696001661\",\"unit\":\"%\"},{\"base_year\":\"2011-12\",\"series\":\"Current\",\"year\":\"2023-24\",\"indicator\":\"GDP Growth Rate\",\"frequency\":\"Quarterly\",\"revision\":null,\"quarter\":\"Q3\",\"current_price\":\"12.920677260399955\",\"constant_price\":\"9.514554744333964\",\"unit\":\"%\"},{\"base_year\":\"2011-12\",\"series\":\"Current\",\"year\":\"2023-24\",\"indicator\":\"GDP Growth Rate\",\"frequency\":\"Quarterly\",\"revision\":null,\"quarter\":\"Q4\",\"current_price\":\"12.046110757808421\",\"constant_price\":\"8.354640581146967\",\"unit\":\"%\"}],\"meta_data\":{\"page\":1,\"totalRecords\":58,\"totalPages\":6,\"recordPerPage\":10},\"msg\":\"Data fetched successfully\",\"statusCode\":true}"}],"structuredContent":{"data":[{"base_year":"2011-12","series":"Current","year":"2025-26","indicator":"GDP Growth Rate","frequency":"Quarterly","revision":null,"quarter":"Q1","current_price":"8.819924796","constant_price":"7.811473796","unit":"%"},{"base_year":"2011-12","series":"Current","year":"2025-26","indicator":"GDP Growth Rate","frequency":"Quarterly","revision":null,"quarter":"Q2","current_price":"8.733345698","constant_price":"8.22847410397631","unit":"%"},{"base_year":"2011-12","series":"Current","year":"2024-25","indicator":"GDP Growth Rate","frequency":"Quarterly","revision":null,"quarter":"Q1","current_price":"9.654775533751021","constant_price":"6.511799767050448","unit":"%"},{"base_year":"2011-12","series":"Current","year":"2024-25","indicator":"GDP Growth Rate","frequency":"Quarterly","revision":null,"quarter":"Q2","current_price":"8.281632948557586","constant_price":"5.61202503491063","unit":"%"},{"base_year":"2011-12","series":"Current","year":"2024-25","indicator":"GDP Growth Rate","frequency":"Quarterly","revision":null,"quarter":"Q3","current_price":"10.281984001951997","constant_price":"6.3664855624527235","unit":"%"},{"base_year":"2011-12","series":"Current","year":"2024-25","indicator":"GDP Growth Rate","frequency":"Quarterly","revision":null,"quarter":"Q4","current_price":"10.759604865320327","constant_price":"7.38453036192746","unit":"%"},{"base_year":"2011-12","series":"Current","year":"2023-24","indicator":"GDP Growth Rate","frequency":"Quarterly","revision":null,"quarter":"Q1","current_price":"10.950464660540774","constant_price":"9.65994425145584","unit":"%"},{"base_year":"2011-12","series":"Current","year":"2023-24","indicator":"GDP Growth Rate","frequency":"Quarterly","revision":null,"quarter":"Q2","current_price":"12.119378655835746","constant_price":"9.342884696001661","unit":"%"},{"base_year":"2011-12","series":"Current","year":"2023-24","indicator":"GDP Growth Rate","frequency":"Quarterly","revision":null,"quarter":"Q3","current_price":"12.920677260399955","constant_price":"9.514554744333964","unit":"%"},{"base_year":"2011-12","series":"Current","year":"2023-24","indicator":"GDP Growth Rate","frequency":"Quarterly","revision":null,"quarter":"Q4","current_price":"12.046110757808421","constant_price":"8.354640581146967","unit":"%"}],"meta_data":{"page":1,"totalRecords":58,"totalPages":6,"recordPerPage":10},"msg":"Data fetched successfully","statusCode":true},"isError":false}}

